#VRML V2.0 utf8
DEF TXFM_1 Transform {
  center 0 0 0
  rotation 0 0 1 0
  scale 1 1 1
  scaleOrientation 0 0 1 0
  translation 0 0 0
 children [
DEF TXFM_2 Transform {
  center 0 0 0
  rotation 0 0 1 0
  scale 1 1 1
  scaleOrientation 0 0 1 0
  translation 0 0 0
 children [
DEF SHAPE_1 Shape {
 appearance DEF APP_1 Appearance {
  material Material {
   ambientIntensity 0.686634
   diffuseColor 0.148 0.145 0.145
   emissiveColor 0 0 0
   shininess 0.1
   specularColor 0.12 0.12 0.12
   transparency 0
} }
 geometry DEF FACE_1 IndexedFaceSet {
  coord DEF COORD_1 Coordinate { point [
  0.20639012 -0.52362205 0.98425197,0.20639012 -0.52362205 2.8740157,
  1.7936099 -0.52362205 2.8740157,1.7936099 -0.52362205 0.98425197] }
 coordIndex [
  3,1,0,-1,3,2,1,-1]
  normalPerVertex TRUE
  normal DEF NORM_1 Normal { vector [
  0 -1 0,0 -1 0,
  0 -1 0,0 -1 0] }
}
}
DEF SHAPE_2 Shape {
 appearance USE APP_1
 geometry DEF FACE_2 IndexedFaceSet {
  coord DEF COORD_2 Coordinate { point [
  1.7936099 -0.52362205 0.98425197,0.20639012 -0.52362205 0.98425197,
  1.9043056 -0.29364608 0.98425197,1.9498366 -0.042509816 0.98425197,
  1.9269219 0.21168973 0.98425197,1.8372126 0.4506348 0.98425197,
  1.6871734 0.65710687 0.98425197,1.487616 0.81622747 0.98425197,
  1.2529208 0.91653027 0.98425197,1 0.9507874 0.98425197,
  0.74707918 0.91653027 0.98425197,0.51238396 0.81622747 0.98425197,
  0.31282663 0.65710687 0.98425197,0.16278738 0.4506348 0.98425197,
  0.073078136 0.21168973 0.98425197,0.050163383 -0.042509816 0.98425197,
  0.095694375 -0.29364608 0.98425197,0.20639012 -0.52362205 2.8740157,
  1.7936099 -0.52362205 2.8740157,1.9043056 -0.29364608 2.8740157,
  1.9498366 -0.042509816 2.8740157,1.9269219 0.21168973 2.8740157,
  1.8372126 0.4506348 2.8740157,1.6871734 0.65710687 2.8740157,
  1.487616 0.81622747 2.8740157,1.2529208 0.91653027 2.8740157,
  1 0.9507874 2.8740157,0.74707918 0.91653027 2.8740157,
  0.51238396 0.81622747 2.8740157,0.31282663 0.65710687 2.8740157,
  0.16278738 0.4506348 2.8740157,0.073078136 0.21168973 2.8740157,
  0.050163383 -0.042509816 2.8740157,0.095694375 -0.29364608 2.8740157] }
 coordIndex [
  16,1,17,-1,16,17,33,-1,15,33,32,-1,15,16,33,-1,14,32,31,-1,14,15,32,-1,13,31,30,-1,13,14,31,-1,
  12,30,29,-1,12,13,30,-1,11,29,28,-1,11,12,29,-1,10,28,27,-1,10,11,28,-1,9,27,26,-1,9,10,27,-1,
  8,26,25,-1,8,9,26,-1,7,25,24,-1,7,8,25,-1,6,24,23,-1,6,7,24,-1,5,23,22,-1,5,6,23,-1,
  4,22,21,-1,4,5,22,-1,3,21,20,-1,3,4,21,-1,2,20,19,-1,2,3,20,-1,0,19,18,-1,0,2,19,-1]
  normalPerVertex TRUE
  normal DEF NORM_2 Normal { vector [
  0.90105284 -0.43370932 0,-0.90105284 -0.43370932 0,
  0.9640742 -0.26563308 0,0.99999992 0.00039302084 0,
  0.9638651 0.2663908 0,0.85827364 0.51319232 0,
  0.69083451 0.72301292 0,0.47361347 0.88073281 0,
  0.22226358 0.97498662 0,-0.045102742 0.99898235 0,
  -0.30921894 0.95099088 0,-0.55105264 0.83447048 0,
  -0.7531772 0.65781769 0,-0.90102739 0.43376219 0,
  -0.98394906 0.17844955 0,-0.99596683 -0.089722257 0,
  -0.93621467 -0.35142863 0,-0.90105284 -0.43370932 0,
  0.90105284 -0.43370932 0,0.93621467 -0.35142863 0,
  0.99596683 -0.089722257 0,0.98394906 0.17844955 0,
  0.90102739 0.43376219 0,0.7531772 0.65781769 0,
  0.55105264 0.83447048 0,0.30921894 0.95099088 0,
  0.045102742 0.99898235 0,-0.22226358 0.97498662 0,
  -0.47361347 0.88073281 0,-0.69083451 0.72301292 0,
  -0.85827364 0.51319232 0,-0.9638651 0.2663908 0,
  -0.99999992 0.00039302084 0,-0.9640742 -0.26563308 0] }
}
}
DEF SHAPE_3 Shape {
 appearance USE APP_1
 geometry DEF FACE_3 IndexedFaceSet {
  coord DEF COORD_3 Coordinate { point [
  0.20639012 -0.52362205 0.98425197,1.7936099 -0.52362205 0.98425197,
  1.9043056 -0.29364608 0.98425197,1.9498366 -0.042509816 0.98425197,
  1.9269219 0.21168973 0.98425197,1.8372126 0.4506348 0.98425197,
  1.6871734 0.65710687 0.98425197,1.487616 0.81622747 0.98425197,
  1.2529208 0.91653027 0.98425197,1 0.9507874 0.98425197,
  0.74707918 0.91653027 0.98425197,0.51238396 0.81622747 0.98425197,
  0.31282663 0.65710687 0.98425197,0.16278738 0.4506348 0.98425197,
  0.073078136 0.21168973 0.98425197,0.050163383 -0.042509816 0.98425197,
  0.095694375 -0.29364608 0.98425197,1.0984252 0.07480315 0.98425197,
  1.0984252 -0.07480315 0.98425197,0.9015748 0.07480315 0.98425197,
  0.9015748 -0.07480315 0.98425197,1.5984252 0.07480315 0.98425197,
  1.5984252 -0.07480315 0.98425197,1.4015748 0.07480315 0.98425197,
  1.4015748 -0.07480315 0.98425197,0.5984252 0.07480315 0.98425197,
  0.5984252 -0.07480315 0.98425197,0.4015748 0.07480315 0.98425197,
  0.4015748 -0.07480315 0.98425197] }
 coordIndex [
  22,2,1,-1,22,3,2,-1,21,4,3,-1,21,3,22,-1,24,22,1,-1,5,4,21,-1,18,24,1,-1,6,21,23,-1,
  6,5,21,-1,17,23,24,-1,17,24,18,-1,0,20,18,-1,0,18,1,-1,26,20,0,-1,7,6,23,-1,7,23,17,-1,
  25,19,20,-1,25,20,26,-1,28,26,0,-1,16,28,0,-1,8,7,17,-1,15,27,28,-1,15,28,16,-1,9,17,19,-1,
  9,8,17,-1,14,27,15,-1,10,9,19,-1,13,27,14,-1,11,19,25,-1,11,10,19,-1,12,25,27,-1,12,27,13,-1,
  12,11,25,-1]
  normalPerVertex TRUE
  normal DEF NORM_3 Normal { vector [
  0 0 -1,0 0 -1,
  0 0 -1,0 0 -1,
  0 0 -1,0 0 -1,
  0 0 -1,0 0 -1,
  0 0 -1,0 0 -1,
  0 0 -1,0 0 -1,
  0 0 -1,0 0 -1,
  0 0 -1,0 0 -1,
  0 0 -1,0 0 -1,
  0 0 -1,0 0 -1,
  0 0 -1,0 0 -1,
  0 0 -1,0 0 -1,
  0 0 -1,0 0 -1,
  0 0 -1,0 0 -1,
  0 0 -1] }
}
}
DEF SHAPE_4 Shape {
 appearance USE APP_1
 geometry DEF FACE_4 IndexedFaceSet {
  coord DEF COORD_4 Coordinate { point [
  0.20639012 -0.52362205 2.8740157,1.7936099 -0.52362205 2.8740157,
  1.9043056 -0.29364608 2.8740157,1.9498366 -0.042509816 2.8740157,
  1.9269219 0.21168973 2.8740157,1.8372126 0.4506348 2.8740157,
  1.6871734 0.65710687 2.8740157,1.487616 0.81622747 2.8740157,
  1.2529208 0.91653027 2.8740157,1 0.9507874 2.8740157,
  0.74707918 0.91653027 2.8740157,0.51238396 0.81622747 2.8740157,
  0.31282663 0.65710687 2.8740157,0.16278738 0.4506348 2.8740157,
  0.073078136 0.21168973 2.8740157,0.050163383 -0.042509816 2.8740157,
  0.095694375 -0.29364608 2.8740157] }
 coordIndex [
  12,0,1,-1,12,1,2,-1,12,2,3,-1,12,3,4,-1,12,4,5,-1,12,5,6,-1,12,6,7,-1,12,7,8,-1,
  12,8,9,-1,12,9,10,-1,12,10,11,-1,12,13,14,-1,12,14,15,-1,12,15,16,-1,12,16,0,-1]
  normalPerVertex TRUE
  normal DEF NORM_4 Normal { vector [
  0 0 1,0 0 1,
  0 0 1,0 0 1,
  0 0 1,0 0 1,
  0 0 1,0 0 1,
  0 0 1,0 0 1,
  0 0 1,0 0 1,
  0 0 1,0 0 1,
  0 0 1,0 0 1,
  0 0 1] }
}
}
DEF SHAPE_5 Shape {
 appearance DEF APP_2 Appearance {
  material Material {
   ambientIntensity 0.122244
   diffuseColor 0.824 0.81999999 0.78100002
   emissiveColor 0 0 0
   shininess 0.1
   specularColor 0.12 0.12 0.12
   transparency 0
} }
 geometry DEF FACE_5 IndexedFaceSet {
  coord DEF COORD_5 Coordinate { point [
  1.0984252 0.07480315 0.98425197,1.0984252 0.07480315 -1.0629921,
  1.0984252 -0.07480315 0.98425197,1.0984252 -0.07480315 -1.0629921] }
 coordIndex [
  1,0,2,-1,1,2,3,-1]
  normalPerVertex TRUE
  normal DEF NORM_5 Normal { vector [
  1 0 0,1 0 0,
  1 0 0,1 0 0] }
}
}
DEF SHAPE_6 Shape {
 appearance USE APP_2
 geometry DEF FACE_6 IndexedFaceSet {
  coord DEF COORD_6 Coordinate { point [
  1.0984252 -0.07480315 0.98425197,0.9015748 -0.07480315 0.98425197,
  0.9015748 -0.07480315 -1.0629921,1.0984252 -0.07480315 -1.0629921] }
 coordIndex [
  3,0,1,-1,3,1,2,-1]
  normalPerVertex TRUE
  normal DEF NORM_6 Normal { vector [
  0 -1 0,0 -1 0,
  0 -1 0,0 -1 0] }
}
}
DEF SHAPE_7 Shape {
 appearance USE APP_2
 geometry DEF FACE_7 IndexedFaceSet {
  coord DEF COORD_7 Coordinate { point [
  0.9015748 0.07480315 -1.0629921,0.9015748 0.07480315 0.98425197,
  0.9015748 -0.07480315 -1.0629921,0.9015748 -0.07480315 0.98425197] }
 coordIndex [
  1,0,2,-1,1,2,3,-1]
  normalPerVertex TRUE
  normal DEF NORM_7 Normal { vector [
  -1 0 0,-1 0 0,
  -1 0 0,-1 0 0] }
}
}
DEF SHAPE_8 Shape {
 appearance USE APP_2
 geometry DEF FACE_8 IndexedFaceSet {
  coord DEF COORD_8 Coordinate { point [
  1.0984252 0.07480315 0.98425197,0.9015748 0.07480315 0.98425197,
  0.9015748 0.07480315 -1.0629921,1.0984252 0.07480315 -1.0629921] }
 coordIndex [
  3,1,0,-1,3,2,1,-1]
  normalPerVertex TRUE
  normal DEF NORM_8 Normal { vector [
  0 1 0,0 1 0,
  0 1 0,0 1 0] }
}
}
DEF SHAPE_9 Shape {
 appearance USE APP_2
 geometry DEF FACE_9 IndexedFaceSet {
  coord DEF COORD_9 Coordinate { point [
  1.5984252 0.07480315 0.98425197,1.5984252 0.07480315 0.8503937,
  1.5984252 -0.07480315 0.98425197,1.5984252 -0.07480315 0.8503937] }
 coordIndex [
  1,0,2,-1,1,2,3,-1]
  normalPerVertex TRUE
  normal DEF NORM_9 Normal { vector [
  1 0 0,1 0 0,
  1 0 0,1 0 0] }
}
}
DEF SHAPE_10 Shape {
 appearance USE APP_2
 geometry DEF FACE_10 IndexedFaceSet {
  coord DEF COORD_10 Coordinate { point [
  2.0984252 -0.07480315 0.1023622,2.0984252 -0.07480315 -1.0629921,
  1.5984252 -0.07480315 0.8503937,1.5984252 -0.07480315 0.98425197,
  1.4015748 -0.07480315 0.98425197,1.4015748 -0.07480315 0.8503937,
  1.9015748 -0.07480315 0.1023622,1.9015748 -0.07480315 -1.0629921] }
 coordIndex [
  2,3,4,-1,2,4,5,-1,6,2,5,-1,0,2,6,-1,1,6,7,-1,1,0,6,-1]
  normalPerVertex TRUE
  normal DEF NORM_10 Normal { vector [
  0 -1 0,0 -1 0,
  0 -1 0,0 -1 0,
  0 -1 0,0 -1 0,
  0 -1 0,0 -1 0] }
}
}
DEF SHAPE_11 Shape {
 appearance USE APP_2
 geometry DEF FACE_11 IndexedFaceSet {
  coord DEF COORD_11 Coordinate { point [
  1.4015748 0.07480315 0.8503937,1.4015748 0.07480315 0.98425197,
  1.4015748 -0.07480315 0.8503937,1.4015748 -0.07480315 0.98425197] }
 coordIndex [
  1,0,2,-1,1,2,3,-1]
  normalPerVertex TRUE
  normal DEF NORM_11 Normal { vector [
  -1 0 0,-1 0 0,
  -1 0 0,-1 0 0] }
}
}
DEF SHAPE_12 Shape {
 appearance USE APP_2
 geometry DEF FACE_12 IndexedFaceSet {
  coord DEF COORD_12 Coordinate { point [
  2.0984252 0.07480315 0.1023622,2.0984252 0.07480315 -1.0629921,
  1.5984252 0.07480315 0.8503937,1.5984252 0.07480315 0.98425197,
  1.4015748 0.07480315 0.98425197,1.4015748 0.07480315 0.8503937,
  1.9015748 0.07480315 0.1023622,1.9015748 0.07480315 -1.0629921] }
 coordIndex [
  2,4,3,-1,2,5,4,-1,6,5,2,-1,0,6,2,-1,1,7,6,-1,1,6,0,-1]
  normalPerVertex TRUE
  normal DEF NORM_12 Normal { vector [
  0 1 0,0 1 0,
  0 1 0,0 1 0,
  0 1 0,0 1 0,
  0 1 0,0 1 0] }
}
}
DEF SHAPE_13 Shape {
 appearance USE APP_2
 geometry DEF FACE_13 IndexedFaceSet {
  coord DEF COORD_13 Coordinate { point [
  0.5984252 0.07480315 0.98425197,0.5984252 0.07480315 0.8503937,
  0.5984252 -0.07480315 0.98425197,0.5984252 -0.07480315 0.8503937] }
 coordIndex [
  1,0,2,-1,1,2,3,-1]
  normalPerVertex TRUE
  normal DEF NORM_13 Normal { vector [
  1 0 0,1 0 0,
  1 0 0,1 0 0] }
}
}
DEF SHAPE_14 Shape {
 appearance USE APP_2
 geometry DEF FACE_14 IndexedFaceSet {
  coord DEF COORD_14 Coordinate { point [
  0.098425197 -0.07480315 0.1023622,0.098425197 -0.07480315 -1.0629921,
  0.5984252 -0.07480315 0.8503937,0.5984252 -0.07480315 0.98425197,
  0.4015748 -0.07480315 0.98425197,0.4015748 -0.07480315 0.8503937,
  -0.098425197 -0.07480315 0.1023622,-0.098425197 -0.07480315 -1.0629921] }
 coordIndex [
  2,3,4,-1,2,4,5,-1,0,5,6,-1,0,2,5,-1,1,6,7,-1,1,0,6,-1]
  normalPerVertex TRUE
  normal DEF NORM_14 Normal { vector [
  0 -1 0,0 -1 0,
  0 -1 0,0 -1 0,
  0 -1 0,0 -1 0,
  0 -1 0,0 -1 0] }
}
}
DEF SHAPE_15 Shape {
 appearance USE APP_2
 geometry DEF FACE_15 IndexedFaceSet {
  coord DEF COORD_15 Coordinate { point [
  0.4015748 0.07480315 0.8503937,0.4015748 0.07480315 0.98425197,
  0.4015748 -0.07480315 0.8503937,0.4015748 -0.07480315 0.98425197] }
 coordIndex [
  1,0,2,-1,1,2,3,-1]
  normalPerVertex TRUE
  normal DEF NORM_15 Normal { vector [
  -1 0 0,-1 0 0,
  -1 0 0,-1 0 0] }
}
}
DEF SHAPE_16 Shape {
 appearance USE APP_2
 geometry DEF FACE_16 IndexedFaceSet {
  coord DEF COORD_16 Coordinate { point [
  0.098425197 0.07480315 0.1023622,0.098425197 0.07480315 -1.0629921,
  0.5984252 0.07480315 0.8503937,0.5984252 0.07480315 0.98425197,
  0.4015748 0.07480315 0.98425197,0.4015748 0.07480315 0.8503937,
  -0.098425197 0.07480315 0.1023622,-0.098425197 0.07480315 -1.0629921] }
 coordIndex [
  2,4,3,-1,2,5,4,-1,0,6,5,-1,0,5,2,-1,1,7,6,-1,1,6,0,-1]
  normalPerVertex TRUE
  normal DEF NORM_16 Normal { vector [
  0 1 0,0 1 0,
  0 1 0,0 1 0,
  0 1 0,0 1 0,
  0 1 0,0 1 0] }
}
}
DEF SHAPE_17 Shape {
 appearance USE APP_2
 geometry DEF FACE_17 IndexedFaceSet {
  coord DEF COORD_17 Coordinate { point [
  1.0984252 0.07480315 -1.0629921,1.0984252 -0.07480315 -1.0629921,
  0.9015748 -0.07480315 -1.0629921,0.9015748 0.07480315 -1.0629921] }
 coordIndex [
  3,0,1,-1,3,1,2,-1]
  normalPerVertex TRUE
  normal DEF NORM_17 Normal { vector [
  0 0 -1,0 0 -1,
  0 0 -1,0 0 -1] }
}
}
DEF SHAPE_18 Shape {
 appearance USE APP_2
 geometry DEF FACE_18 IndexedFaceSet {
  coord DEF COORD_18 Coordinate { point [
  2.0984252 0.07480315 0.1023622,2.0984252 -0.07480315 0.1023622,
  1.5984252 -0.07480315 0.8503937,1.5984252 0.07480315 0.8503937] }
 coordIndex [
  3,1,0,-1,3,2,1,-1]
  normalPerVertex TRUE
  normal DEF NORM_18 Normal { vector [
  0.8313765 0 0.55570956,0.8313765 0 0.55570956,
  0.8313765 0 0.55570956,0.8313765 0 0.55570956] }
}
}
DEF SHAPE_19 Shape {
 appearance USE APP_2
 geometry DEF FACE_19 IndexedFaceSet {
  coord DEF COORD_19 Coordinate { point [
  2.0984252 0.07480315 0.1023622,2.0984252 -0.07480315 0.1023622,
  2.0984252 -0.07480315 -1.0629921,2.0984252 0.07480315 -1.0629921] }
 coordIndex [
  3,0,1,-1,3,1,2,-1]
  normalPerVertex TRUE
  normal DEF NORM_19 Normal { vector [
  1 0 0,1 0 0,
  1 0 0,1 0 0] }
}
}
DEF SHAPE_20 Shape {
 appearance USE APP_2
 geometry DEF FACE_20 IndexedFaceSet {
  coord DEF COORD_20 Coordinate { point [
  2.0984252 0.07480315 -1.0629921,2.0984252 -0.07480315 -1.0629921,
  1.9015748 -0.07480315 -1.0629921,1.9015748 0.07480315 -1.0629921] }
 coordIndex [
  3,0,1,-1,3,1,2,-1]
  normalPerVertex TRUE
  normal DEF NORM_20 Normal { vector [
  0 0 -1,0 0 -1,
  0 0 -1,0 0 -1] }
}
}
DEF SHAPE_21 Shape {
 appearance USE APP_2
 geometry DEF FACE_21 IndexedFaceSet {
  coord DEF COORD_21 Coordinate { point [
  1.9015748 0.07480315 -1.0629921,1.9015748 -0.07480315 -1.0629921,
  1.9015748 -0.07480315 0.1023622,1.9015748 0.07480315 0.1023622] }
 coordIndex [
  3,0,1,-1,3,1,2,-1]
  normalPerVertex TRUE
  normal DEF NORM_21 Normal { vector [
  -1 0 0,-1 0 0,
  -1 0 0,-1 0 0] }
}
}
DEF SHAPE_22 Shape {
 appearance USE APP_2
 geometry DEF FACE_22 IndexedFaceSet {
  coord DEF COORD_22 Coordinate { point [
  1.4015748 0.07480315 0.8503937,1.4015748 -0.07480315 0.8503937,
  1.9015748 -0.07480315 0.1023622,1.9015748 0.07480315 0.1023622] }
 coordIndex [
  3,1,0,-1,3,2,1,-1]
  normalPerVertex TRUE
  normal DEF NORM_22 Normal { vector [
  -0.8313765 0 -0.55570956,-0.8313765 0 -0.55570956,
  -0.8313765 0 -0.55570956,-0.8313765 0 -0.55570956] }
}
}
DEF SHAPE_23 Shape {
 appearance USE APP_2
 geometry DEF FACE_23 IndexedFaceSet {
  coord DEF COORD_23 Coordinate { point [
  0.098425197 0.07480315 0.1023622,0.098425197 -0.07480315 0.1023622,
  0.5984252 -0.07480315 0.8503937,0.5984252 0.07480315 0.8503937] }
 coordIndex [
  3,1,0,-1,3,2,1,-1]
  normalPerVertex TRUE
  normal DEF NORM_23 Normal { vector [
  0.8313765 0 -0.55570956,0.8313765 0 -0.55570956,
  0.8313765 0 -0.55570956,0.8313765 0 -0.55570956] }
}
}
DEF SHAPE_24 Shape {
 appearance USE APP_2
 geometry DEF FACE_24 IndexedFaceSet {
  coord DEF COORD_24 Coordinate { point [
  0.098425197 0.07480315 0.1023622,0.098425197 -0.07480315 0.1023622,
  0.098425197 -0.07480315 -1.0629921,0.098425197 0.07480315 -1.0629921] }
 coordIndex [
  3,0,1,-1,3,1,2,-1]
  normalPerVertex TRUE
  normal DEF NORM_24 Normal { vector [
  1 0 0,1 0 0,
  1 0 0,1 0 0] }
}
}
DEF SHAPE_25 Shape {
 appearance USE APP_2
 geometry DEF FACE_25 IndexedFaceSet {
  coord DEF COORD_25 Coordinate { point [
  0.098425197 0.07480315 -1.0629921,0.098425197 -0.07480315 -1.0629921,
  -0.098425197 -0.07480315 -1.0629921,-0.098425197 0.07480315 -1.0629921] }
 coordIndex [
  3,0,1,-1,3,1,2,-1]
  normalPerVertex TRUE
  normal DEF NORM_25 Normal { vector [
  0 0 -1,0 0 -1,
  0 0 -1,0 0 -1] }
}
}
DEF SHAPE_26 Shape {
 appearance USE APP_2
 geometry DEF FACE_26 IndexedFaceSet {
  coord DEF COORD_26 Coordinate { point [
  -0.098425197 0.07480315 -1.0629921,-0.098425197 -0.07480315 -1.0629921,
  -0.098425197 -0.07480315 0.1023622,-0.098425197 0.07480315 0.1023622] }
 coordIndex [
  3,0,1,-1,3,1,2,-1]
  normalPerVertex TRUE
  normal DEF NORM_26 Normal { vector [
  -1 0 0,-1 0 0,
  -1 0 0,-1 0 0] }
}
}
DEF SHAPE_27 Shape {
 appearance USE APP_2
 geometry DEF FACE_27 IndexedFaceSet {
  coord DEF COORD_27 Coordinate { point [
  -0.098425197 0.07480315 0.1023622,-0.098425197 -0.07480315 0.1023622,
  0.4015748 -0.07480315 0.8503937,0.4015748 0.07480315 0.8503937] }
 coordIndex [
  3,0,1,-1,3,1,2,-1]
  normalPerVertex TRUE
  normal DEF NORM_27 Normal { vector [
  -0.8313765 0 0.55570956,-0.8313765 0 0.55570956,
  -0.8313765 0 0.55570956,-0.8313765 0 0.55570956] }
}
}
] }
] }
